{
  "_id": "5f4062b34039794faaf7d83a",
  "post": 13,
  "parent": 0,
  "timestamp": "2020-08-23T12:46:10.690Z",
  "uid": "Heaven",
  "username": "Dorthy",
  "email": "dorthydrake@anarco.com",
  "message": "Ea aute veniam labore adipisicing ex ea sint aute in adipisicing ad culpa. Aliqua enim anim in deserunt veniam in adipisicing Lorem tempor id. Ut eiusmod anim reprehenderit ut mollit aliquip ut elit in Lorem commodo.\r\n",
  "bump": true
}