{
  "_id": "5f4062b379b12f43fa7c036f",
  "post": 9,
  "parent": 0,
  "timestamp": "2020-08-23T12:46:10.690Z",
  "uid": "Heaven",
  "username": "Wilda",
  "email": "wildadrake@anarco.com",
  "message": "Aliqua aliquip dolore velit ullamco sunt excepteur aliquip aute nostrud exercitation sint excepteur proident fugiat. Aliqua dolor nulla amet magna sunt labore ea voluptate occaecat laborum. Nostrud in ex consectetur laborum ullamco minim reprehenderit nostrud enim reprehenderit quis. Ea aliqua ad in ea.\r\n",
  "bump": false
}